<svg xmlns="http://www.w3.org/2000/svg" width="12.309" height="15.386" viewBox="0 0 12.309 15.386">
  <path id="document" d="M7.847,8.155h.769a.769.769,0,1,0,0-1.539H7.847a.769.769,0,0,0,0,1.539Zm0,1.539a.769.769,0,1,0,0,1.539h4.616a.769.769,0,1,0,0-1.539Zm8.463-2.354a1.008,1.008,0,0,0-.046-.208V7.062a.823.823,0,0,0-.146-.215h0L11.5,2.231h0a.823.823,0,0,0-.215-.146.246.246,0,0,0-.069,0A.677.677,0,0,0,10.962,2H6.308A2.308,2.308,0,0,0,4,4.308v10.77a2.308,2.308,0,0,0,2.308,2.308H14a2.308,2.308,0,0,0,2.308-2.308V7.339ZM11.693,4.623l1.993,1.993H12.463a.769.769,0,0,1-.769-.769ZM14.77,15.078a.769.769,0,0,1-.769.769H6.308a.769.769,0,0,1-.769-.769V4.308a.769.769,0,0,1,.769-.769h3.847V5.847a2.308,2.308,0,0,0,2.308,2.308H14.77ZM12.463,12.77H7.847a.769.769,0,1,0,0,1.539h4.616a.769.769,0,1,0,0-1.539Z" transform="translate(-4 -2)" fill="#535a63"/>
</svg>
